{
  "child1" : {
    "id" : 1,
    "value" : {
      "logical.test.Child" : {
        "name" : "Annika"
      }
    }
  },
  "child2" : {
    "id" : 1,
    "value" : {
      "null" : null
    }
  }
}